%YAML 1.1
%TAG !u! tag:unity3d.com,2011:
--- !u!114 &11400000
MonoBehaviour:
  m_ObjectHideFlags: 0
  m_CorrespondingSourceObject: {fileID: 0}
  m_PrefabInstance: {fileID: 0}
  m_PrefabAsset: {fileID: 0}
  m_GameObject: {fileID: 0}
  m_Enabled: 1
  m_EditorHideFlags: 0
  m_Script: {fileID: 11500000, guid: bbb281ee3bf0b054c82ac2347e9e782c, type: 3}
  m_Name: Default Local Group
  m_EditorClassIdentifier: 
  m_GroupName: Default Local Group
  m_Data:
    m_SerializedData: []
  m_GUID: b0133f135358c9349be74f57ee7b31b7
  m_SerializeEntries: []
  m_ReadOnly: 0
  m_Settings: {fileID: 11400000, guid: e7925c87b57ed754b926cd52383ed079, type: 2}
  m_SchemaSet:
    m_Schemas:
    - {fileID: 11400000, guid: 51685e897c7781943aeca80ec3a7ebde, type: 2}
    - {fileID: 11400000, guid: 583f63bb21a2a9d40812948366468008, type: 2}
